%YAML 1.1
%TAG !u! tag:unity3d.com,2011:
--- !u!74 &7400000
AnimationClip:
  m_ObjectHideFlags: 0
  m_CorrespondingSourceObject: {fileID: 0}
  m_PrefabInstance: {fileID: 0}
  m_PrefabAsset: {fileID: 0}
  m_Name: Idle
  serializedVersion: 6
  m_Legacy: 0
  m_Compressed: 0
  m_UseHighQualityCurve: 1
  m_RotationCurves: []
  m_CompressedRotationCurves: []
  m_EulerCurves: []
  m_PositionCurves: []
  m_ScaleCurves: []
  m_FloatCurves: []
  m_PPtrCurves:
  - curve:
    - time: 0
      value: {fileID: 21300000, guid: 40d56253b84717a49a1b0f93728f5614, type: 3}
    - time: 0.05
      value: {fileID: 21300000, guid: 63b4e86118eb2e744863cbae9675496b, type: 3}
    - time: 0.1
      value: {fileID: 21300000, guid: b5fa80f89f8b57840ab5499d7579a0a8, type: 3}
    - time: 0.15
      value: {fileID: 21300000, guid: f359b907d9c0d7547b7a7ddba46bb4d6, type: 3}
    - time: 0.21666667
      value: {fileID: 21300000, guid: c1922ed49264fad40a68bd97398702ec, type: 3}
    - time: 0.26666668
      value: {fileID: 21300000, guid: ca185b3980e01444a85c565054fc0727, type: 3}
    - time: 0.31666666
      value: {fileID: 21300000, guid: 4b9c679411db918479c1dee1f7a19360, type: 3}
    - time: 0.36666667
      value: {fileID: 21300000, guid: 6cc59d9baa1dcf247901396979695967, type: 3}
    - time: 0.41666666
      value: {fileID: 21300000, guid: 864142cecb7efdf44b0b1d1d81ce8726, type: 3}
    - time: 0.46666667
      value: {fileID: 21300000, guid: 9f988db56813e0642871e07a85bb2774, type: 3}
    - time: 0.53333336
      value: {fileID: 21300000, guid: 61af137999cbbf143850d4e4ac27e8fa, type: 3}
    - time: 0.5833333
      value: {fileID: 21300000, guid: c5f52ccd3d6164148860388a22ced03b, type: 3}
    - time: 0.6333333
      value: {fileID: 21300000, guid: 3fc9285095f8c074a80cbf8ce11443ee, type: 3}
    - time: 0.68333334
      value: {fileID: 21300000, guid: 88b52f3c43d987f40bb76600d86260e6, type: 3}
    attribute: m_Sprite
    path: 
    classID: 212
    script: {fileID: 0}
  m_SampleRate: 60
  m_WrapMode: 0
  m_Bounds:
    m_Center: {x: 0, y: 0, z: 0}
    m_Extent: {x: 0, y: 0, z: 0}
  m_ClipBindingConstant:
    genericBindings:
    - serializedVersion: 2
      path: 0
      attribute: 0
      script: {fileID: 0}
      typeID: 212
      customType: 23
      isPPtrCurve: 1
    pptrCurveMapping:
    - {fileID: 21300000, guid: 40d56253b84717a49a1b0f93728f5614, type: 3}
    - {fileID: 21300000, guid: 63b4e86118eb2e744863cbae9675496b, type: 3}
    - {fileID: 21300000, guid: b5fa80f89f8b57840ab5499d7579a0a8, type: 3}
    - {fileID: 21300000, guid: f359b907d9c0d7547b7a7ddba46bb4d6, type: 3}
    - {fileID: 21300000, guid: c1922ed49264fad40a68bd97398702ec, type: 3}
    - {fileID: 21300000, guid: ca185b3980e01444a85c565054fc0727, type: 3}
    - {fileID: 21300000, guid: 4b9c679411db918479c1dee1f7a19360, type: 3}
    - {fileID: 21300000, guid: 6cc59d9baa1dcf247901396979695967, type: 3}
    - {fileID: 21300000, guid: 864142cecb7efdf44b0b1d1d81ce8726, type: 3}
    - {fileID: 21300000, guid: 9f988db56813e0642871e07a85bb2774, type: 3}
    - {fileID: 21300000, guid: 61af137999cbbf143850d4e4ac27e8fa, type: 3}
    - {fileID: 21300000, guid: c5f52ccd3d6164148860388a22ced03b, type: 3}
    - {fileID: 21300000, guid: 3fc9285095f8c074a80cbf8ce11443ee, type: 3}
    - {fileID: 21300000, guid: 88b52f3c43d987f40bb76600d86260e6, type: 3}
  m_AnimationClipSettings:
    serializedVersion: 2
    m_AdditiveReferencePoseClip: {fileID: 0}
    m_AdditiveReferencePoseTime: 0
    m_StartTime: 0
    m_StopTime: 0.7
    m_OrientationOffsetY: 0
    m_Level: 0
    m_CycleOffset: 0
    m_HasAdditiveReferencePose: 0
    m_LoopTime: 1
    m_LoopBlend: 0
    m_LoopBlendOrientation: 0
    m_LoopBlendPositionY: 0
    m_LoopBlendPositionXZ: 0
    m_KeepOriginalOrientation: 0
    m_KeepOriginalPositionY: 1
    m_KeepOriginalPositionXZ: 0
    m_HeightFromFeet: 0
    m_Mirror: 0
  m_EditorCurves: []
  m_EulerEditorCurves: []
  m_HasGenericRootTransform: 0
  m_HasMotionFloatCurves: 0
  m_Events: []
