%YAML 1.1
%TAG !u! tag:unity3d.com,2011:
--- !u!74 &7400000
AnimationClip:
  m_ObjectHideFlags: 0
  m_CorrespondingSourceObject: {fileID: 0}
  m_PrefabInstance: {fileID: 0}
  m_PrefabAsset: {fileID: 0}
  m_Name: Walk
  serializedVersion: 6
  m_Legacy: 0
  m_Compressed: 0
  m_UseHighQualityCurve: 1
  m_RotationCurves: []
  m_CompressedRotationCurves: []
  m_EulerCurves: []
  m_PositionCurves: []
  m_ScaleCurves: []
  m_FloatCurves: []
  m_PPtrCurves:
  - curve:
    - time: 0
      value: {fileID: 21300000, guid: 647220f53310db24d91954007d10730d, type: 3}
    - time: 0.05
      value: {fileID: 21300000, guid: 02ff13fcfa01a064fa0e64b0430a681c, type: 3}
    - time: 0.11666667
      value: {fileID: 21300000, guid: d25ef7386b124a947844926d09f7576c, type: 3}
    - time: 0.18333334
      value: {fileID: 21300000, guid: 3db524d2a160b664da1efcdff7dbc0af, type: 3}
    - time: 0.25
      value: {fileID: 21300000, guid: c048fc517a649704982edac5c242d28a, type: 3}
    - time: 0.3
      value: {fileID: 21300000, guid: f54d9e7766f50164f815620bd68db724, type: 3}
    - time: 0.35
      value: {fileID: 21300000, guid: 8533c85bdbe0e5541a8fd6032c2f0609, type: 3}
    - time: 0.4
      value: {fileID: 21300000, guid: 0c759eca827955b43b61513040811b1d, type: 3}
    - time: 0.46666667
      value: {fileID: 21300000, guid: 5dd42c36411836d41a16a90549e4e779, type: 3}
    - time: 0.51666665
      value: {fileID: 21300000, guid: 9e9e59577cd9ba74c985a6109d2fed90, type: 3}
    - time: 0.56666666
      value: {fileID: 21300000, guid: 60b5163bbe2a94949ab54c0b0f632593, type: 3}
    - time: 0.6333333
      value: {fileID: 21300000, guid: fc110c352ff345547bf1a86ab198972e, type: 3}
    - time: 0.68333334
      value: {fileID: 21300000, guid: f1a72352e36705846a6b782a65766cbb, type: 3}
    - time: 0.73333335
      value: {fileID: 21300000, guid: 72613f7037cf1f44a9246ec6947d9cf5, type: 3}
    - time: 0.8
      value: {fileID: 21300000, guid: 3cc7e9121197b3d49a9a1b023cef65c3, type: 3}
    - time: 0.85
      value: {fileID: 21300000, guid: d62d161d05b78da43b16d6d38e6440a7, type: 3}
    - time: 0.9
      value: {fileID: 21300000, guid: 81b9a65454a058c409164ec59e7882bf, type: 3}
    - time: 0.98333335
      value: {fileID: 21300000, guid: 0008ce6427e83754e8642757a387b06a, type: 3}
    - time: 1.05
      value: {fileID: 21300000, guid: 656b11f61d4581c49a0f3643a6638fab, type: 3}
    - time: 1.1166667
      value: {fileID: 21300000, guid: b5b1cb7a3ded9924691e5d71b2d24d73, type: 3}
    - time: 1.1833333
      value: {fileID: 21300000, guid: 8010883d4328ad546b4fc63a29a4ed0f, type: 3}
    - time: 1.2333333
      value: {fileID: 21300000, guid: 4a03d1bd132fbb845ac6a557d60182a0, type: 3}
    attribute: m_Sprite
    path: 
    classID: 212
    script: {fileID: 0}
  m_SampleRate: 60
  m_WrapMode: 0
  m_Bounds:
    m_Center: {x: 0, y: 0, z: 0}
    m_Extent: {x: 0, y: 0, z: 0}
  m_ClipBindingConstant:
    genericBindings:
    - serializedVersion: 2
      path: 0
      attribute: 0
      script: {fileID: 0}
      typeID: 212
      customType: 23
      isPPtrCurve: 1
    pptrCurveMapping:
    - {fileID: 21300000, guid: 647220f53310db24d91954007d10730d, type: 3}
    - {fileID: 21300000, guid: 02ff13fcfa01a064fa0e64b0430a681c, type: 3}
    - {fileID: 21300000, guid: d25ef7386b124a947844926d09f7576c, type: 3}
    - {fileID: 21300000, guid: 3db524d2a160b664da1efcdff7dbc0af, type: 3}
    - {fileID: 21300000, guid: c048fc517a649704982edac5c242d28a, type: 3}
    - {fileID: 21300000, guid: f54d9e7766f50164f815620bd68db724, type: 3}
    - {fileID: 21300000, guid: 8533c85bdbe0e5541a8fd6032c2f0609, type: 3}
    - {fileID: 21300000, guid: 0c759eca827955b43b61513040811b1d, type: 3}
    - {fileID: 21300000, guid: 5dd42c36411836d41a16a90549e4e779, type: 3}
    - {fileID: 21300000, guid: 9e9e59577cd9ba74c985a6109d2fed90, type: 3}
    - {fileID: 21300000, guid: 60b5163bbe2a94949ab54c0b0f632593, type: 3}
    - {fileID: 21300000, guid: fc110c352ff345547bf1a86ab198972e, type: 3}
    - {fileID: 21300000, guid: f1a72352e36705846a6b782a65766cbb, type: 3}
    - {fileID: 21300000, guid: 72613f7037cf1f44a9246ec6947d9cf5, type: 3}
    - {fileID: 21300000, guid: 3cc7e9121197b3d49a9a1b023cef65c3, type: 3}
    - {fileID: 21300000, guid: d62d161d05b78da43b16d6d38e6440a7, type: 3}
    - {fileID: 21300000, guid: 81b9a65454a058c409164ec59e7882bf, type: 3}
    - {fileID: 21300000, guid: 0008ce6427e83754e8642757a387b06a, type: 3}
    - {fileID: 21300000, guid: 656b11f61d4581c49a0f3643a6638fab, type: 3}
    - {fileID: 21300000, guid: b5b1cb7a3ded9924691e5d71b2d24d73, type: 3}
    - {fileID: 21300000, guid: 8010883d4328ad546b4fc63a29a4ed0f, type: 3}
    - {fileID: 21300000, guid: 4a03d1bd132fbb845ac6a557d60182a0, type: 3}
  m_AnimationClipSettings:
    serializedVersion: 2
    m_AdditiveReferencePoseClip: {fileID: 0}
    m_AdditiveReferencePoseTime: 0
    m_StartTime: 0
    m_StopTime: 1.25
    m_OrientationOffsetY: 0
    m_Level: 0
    m_CycleOffset: 0
    m_HasAdditiveReferencePose: 0
    m_LoopTime: 1
    m_LoopBlend: 0
    m_LoopBlendOrientation: 0
    m_LoopBlendPositionY: 0
    m_LoopBlendPositionXZ: 0
    m_KeepOriginalOrientation: 0
    m_KeepOriginalPositionY: 1
    m_KeepOriginalPositionXZ: 0
    m_HeightFromFeet: 0
    m_Mirror: 0
  m_EditorCurves: []
  m_EulerEditorCurves: []
  m_HasGenericRootTransform: 0
  m_HasMotionFloatCurves: 0
  m_Events: []
